{
  "project_name": "ubuntu-baseimage",
  "base_image_name": "ubuntu:xenial",
  "image_name": "ubuntu-baseimage",
  "repository": "mswinson",
  "fq_image_name": "mswinson/ubuntu-baseimage",
  "image_tag": "xenial"
}

